{
    "fluentMethods": true,
    "relationships": [],
    "fields": [
        {
            "fieldName": "organizationName",
            "fieldType": "String",
            "fieldValidateRules": [
                "required"
            ]
        },
        {
            "fieldName": "applicantType",
            "fieldType": "String"
        }
    ],
    "changelogDate": "20170223224219",
    "entityTableName": "applicant",
    "dto": "no",
    "pagination": "infinite-scroll",
    "service": "serviceImpl"
}